04. Classification lab
…
Group means:
            Lag1        Lag2
Down  0.04279022  0.03389409
Up   -0.03954635 -0.03132544

Coefficients of linear discriminants:
            LD1
Lag1 -0.6420190
Lag2 -0.5135293

predict(lda_fit, smarket_test)

# A tibble: 252 x 1
   .pred_class
   <fct>      
 1 Up         
 2 Up         
 3 Up         
 4 Up         
 5 Up         
 6 Up         
 7 Up         
 8 Up         
 9 Up         
10 Up         
# ... with 242 more rows

predict(lda_fit, smarket_test, type = "prob")

# A tibble: 252 x 2
   .pred_Down .pred_Up
        <dbl>    <dbl>
 1      0.490    0.510
 2      0.479    0.521
 3      0.467    0.533
 4      0.474    0.526
 5      0.493    0.507
 6      0.494    0.506
 7      0.495    0.505
 8      0.487    0.513
 9      0.491    0.509
10      0.484    0.516
# ... with 242 more rows

lda_pred <- augment(lda_fit, smarket_test)
lda_pred

# A tibble: 252 x 12
    Year   Lag1   Lag2   Lag3   Lag4   Lag5 Volume  Today Direction .pred_class
   <dbl>  <dbl>  <dbl>  <dbl>  <dbl>  <dbl>  <dbl>  <dbl> <fct>     <fct>      
 1  2005 -0.134  0.008 -0.007  0.715 -0.431  0.787 -0.812 Down      Up         
 2  2005 -0.812 -0.134  0.008 -0.007  0.715  1.51  -1.17  Down      Up         
 3  2005 -1.17  -0.812 -0.134  0.008 -0.007  1.72  -0.363 Down      Up         
 4  2005 -0.363 -1.17  -0.812 -0.134  0.008  1.74   0.351 Up        Up         
 5  2005  0.351 -0.363 -1.17  -0.812 -0.134  1.57  -0.143 Down      Up         
 6  2005 -0.143  0.351 -0.363 -1.17  -0.812  1.48   0.342 Up        Up         
 7  2005  0.342 -0.143  0.351 -0.363 -1.17   1.49  -0.61  Down      Up         
 8  2005 -0.61   0.342 -0.143  0.351 -0.363  1.49   0.398 Up        Up         
 9  2005  0.398 -0.61   0.342 -0.143  0.351  1.56  -0.863 Down      Up         
10  2005 -0.863  0.398 -0.61   0.342 -0.143  1.51   0.6   Up        Up         
# ... with 242 more rows, and 2 more variables: .pred_Down <dbl>,
#   .pred_Up <dbl>
…
preds <- imap_dfr(models, 
                  augment,
                  new_data = smarket_test,
                  .id = "model")

preds %>% 
  dplyr::select(Direction, .pred_class, .pred_Down, .pred_Up)

# A tibble: 1,008 x 4
   Direction .pred_class .pred_Down .pred_Up
   <fct>     <fct>            <dbl>    <dbl>
 1 Down      Up               0.472    0.528
 2 Down      Up               0.484    0.516
 3 Down      Up               0.477    0.523
 4 Up        Up               0.486    0.514
 5 Down      Down             0.502    0.498
 6 Up        Up               0.499    0.501
 7 Down      Up               0.497    0.503
 8 Up        Up               0.490    0.510
 9 Down      Up               0.496    0.504
10 Up        Up               0.489    0.511
# ... with 998 more rows
…
