06. Regularization
…
penalty_grid <- grid_regular(penalty(range = c(-5, 5)), levels = 50)

fit_tuned_ridge <- 
  tune_grid(
    ridge_wf,
    resamples = hitters_cv,
    grid = penalty_grid,
    control = control_grid(save_pred = T)
  )

fit_tuned_ridge %>% collect_metrics()

# A tibble: 100 x 7
     penalty .metric .estimator    mean     n std_err .config              
       <dbl> <chr>   <chr>        <dbl> <int>   <dbl> <chr>                
 1 0.00001   rmse    standard   340.       10 31.3    Preprocessor1_Model01
 2 0.00001   rsq     standard     0.460    10  0.0621 Preprocessor1_Model01
 3 0.0000160 rmse    standard   340.       10 31.3    Preprocessor1_Model02
 4 0.0000160 rsq     standard     0.460    10  0.0621 Preprocessor1_Model02
 5 0.0000256 rmse    standard   340.       10 31.3    Preprocessor1_Model03
 6 0.0000256 rsq     standard     0.460    10  0.0621 Preprocessor1_Model03
 7 0.0000409 rmse    standard   340.       10 31.3    Preprocessor1_Model04
 8 0.0000409 rsq     standard     0.460    10  0.0621 Preprocessor1_Model04
 9 0.0000655 rmse    standard   340.       10 31.3    Preprocessor1_Model05
10 0.0000655 rsq     standard     0.460    10  0.0621 Preprocessor1_Model05
# ... with 90 more rows
…
fit_tuned_lasso <- 
  tune_grid(
    lasso_wf,
    resamples = hitters_cv,
    grid = penalty_grid,
    metrics = NULL,
    control = control_grid(save_pred = T)
  )

fit_tuned_lasso %>% collect_metrics()

# A tibble: 100 x 7
     penalty .metric .estimator    mean     n std_err .config              
       <dbl> <chr>   <chr>        <dbl> <int>   <dbl> <chr>                
 1 0.00001   rmse    standard   345.       10 33.5    Preprocessor1_Model01
 2 0.00001   rsq     standard     0.448    10  0.0640 Preprocessor1_Model01
 3 0.0000160 rmse    standard   345.       10 33.5    Preprocessor1_Model02
 4 0.0000160 rsq     standard     0.448    10  0.0640 Preprocessor1_Model02
 5 0.0000256 rmse    standard   345.       10 33.5    Preprocessor1_Model03
 6 0.0000256 rsq     standard     0.448    10  0.0640 Preprocessor1_Model03
 7 0.0000409 rmse    standard   345.       10 33.5    Preprocessor1_Model04
 8 0.0000409 rsq     standard     0.448    10  0.0640 Preprocessor1_Model04
 9 0.0000655 rmse    standard   345.       10 33.5    Preprocessor1_Model05
10 0.0000655 rsq     standard     0.448    10  0.0640 Preprocessor1_Model05
# ... with 90 more rows
…
pca_grid <- crossing(num_comp = 0:10,
                     threshold = seq(0,1, by=.1)
                     )

tune_pca <- 
  tune_grid(
    pca_wf,
    resamples = hitters_cv,
    grid = pca_grid,
    control = control_grid(save_pred = T)
  )

tune_pca %>% collect_metrics()

# A tibble: 242 x 8
   num_comp threshold .metric .estimator    mean     n std_err .config          
      <int>     <dbl> <chr>   <chr>        <dbl> <int>   <dbl> <chr>            
 1        0       0   rmse    standard   346.       10 33.6    Preprocessor001_~
 2        0       0   rsq     standard     0.446    10  0.0639 Preprocessor001_~
 3        0       0.1 rmse    standard   346.       10 33.6    Preprocessor002_~
 4        0       0.1 rsq     standard     0.446    10  0.0639 Preprocessor002_~
 5        0       0.2 rmse    standard   346.       10 33.6    Preprocessor003_~
 6        0       0.2 rsq     standard     0.446    10  0.0639 Preprocessor003_~
 7        0       0.3 rmse    standard   346.       10 33.6    Preprocessor004_~
 8        0       0.3 rsq     standard     0.446    10  0.0639 Preprocessor004_~
 9        0       0.4 rmse    standard   346.       10 33.6    Preprocessor005_~
10        0       0.4 rsq     standard     0.446    10  0.0639 Preprocessor005_~
# ... with 232 more rows
…
