07. Moving beyond linearity
…
poly_glm_fit <- fit(glm_wf, wage)
tidy(poly_glm_fit)

# A tibble: 5 x 5
  term        estimate std.error statistic  p.value
  <chr>          <dbl>     <dbl>     <dbl>    <dbl>
1 (Intercept)     4.30     0.345     12.5  1.16e-35
2 age_poly_1    -72.0     26.1       -2.76 5.86e- 3
3 age_poly_2     85.8     35.9        2.39 1.69e- 2
4 age_poly_3    -34.2     19.7       -1.74 8.27e- 2
5 age_poly_4     47.4     24.1        1.97 4.91e- 2

predict(poly_glm_fit, wage)

# A tibble: 3,000 x 1
   .pred_class
   <fct>      
 1 Low        
 2 Low        
 3 Low        
 4 Low        
 5 Low        
 6 Low        
 7 Low        
 8 Low        
 9 Low        
10 Low        
# ... with 2,990 more rows

predict(poly_glm_fit, wage, type= "prob")

# A tibble: 3,000 x 2
      .pred_High .pred_Low
           <dbl>     <dbl>
 1 0.00000000983     1.00 
 2 0.000120          1.00 
 3 0.0307            0.969
 4 0.0320            0.968
 5 0.0305            0.970
 6 0.0352            0.965
 7 0.0313            0.969
 8 0.00820           0.992
 9 0.0334            0.967
10 0.0323            0.968
# ... with 2,990 more rows
…
In order to fit regression splines, or in other words, use splines as preprocessors when fitting a linear model, we use step_bs() to construct the matrices of basis functions. The bs() function is used and arguments such as knots can be passed to bs() by using passing a named list to options.

spline_rec <- recipe(wage ~ age, data = wage) %>%
  step_bs(age, options = list(knots = 25, 40, 60))

spline_wf <- workflow() %>%
  add_model(lm_model) %>%
  add_recipe(spline_rec)

spline_fit <- fit(spline_wf, data = wage)

predict(spline_fit, new_data = wage)

# A tibble: 3,000 x 1
   .pred
   <dbl>
 1  58.7
 2  84.3
 3 120. 
 4 120. 
 5 120. 
 6 119. 
 7 120. 
 8 102. 
 9 119. 
10 120. 
# ... with 2,990 more rows
…
