08. Tree-Based Models
…
tree_class_tune %>% collect_metrics()

# A tibble: 30 x 7
   cost_complexity .metric     .estimator  mean     n std_err .config           
             <dbl> <chr>       <chr>      <dbl> <int>   <dbl> <chr>             
 1         0.001   accuracy    binary     0.73     10  0.0246 Preprocessor1_Mod~
 2         0.001   mn_log_loss binary     1.16     10  0.312  Preprocessor1_Mod~
 3         0.001   roc_auc     binary     0.790    10  0.0372 Preprocessor1_Mod~
 4         0.00167 accuracy    binary     0.73     10  0.0246 Preprocessor1_Mod~
 5         0.00167 mn_log_loss binary     1.16     10  0.312  Preprocessor1_Mod~
 6         0.00167 roc_auc     binary     0.790    10  0.0372 Preprocessor1_Mod~
 7         0.00278 accuracy    binary     0.73     10  0.0246 Preprocessor1_Mod~
 8         0.00278 mn_log_loss binary     1.16     10  0.312  Preprocessor1_Mod~
 9         0.00278 roc_auc     binary     0.790    10  0.0372 Preprocessor1_Mod~
10         0.00464 accuracy    binary     0.727    10  0.0237 Preprocessor1_Mod~
# ... with 20 more rows

tree_class_tune %>% collect_predictions()

# A tibble: 3,000 x 8
   id     .pred_class  .row cost_complexity .pred_No .pred_Yes High  .config    
   <chr>  <fct>       <int>           <dbl>    <dbl>     <dbl> <fct> <chr>      
 1 Fold01 No             18           0.001    0.814    0.186  No    Preprocess~
 2 Fold01 No             26           0.001    0.814    0.186  No    Preprocess~
 3 Fold01 No             30           0.001    0.814    0.186  No    Preprocess~
 4 Fold01 No             31           0.001    0.814    0.186  No    Preprocess~
 5 Fold01 Yes            63           0.001    0.3      0.7    No    Preprocess~
 6 Fold01 No             78           0.001    0.905    0.0952 No    Preprocess~
 7 Fold01 No             83           0.001    0.905    0.0952 No    Preprocess~
 8 Fold01 No            107           0.001    0.814    0.186  No    Preprocess~
 9 Fold01 No            109           0.001    0.905    0.0952 No    Preprocess~
10 Fold01 Yes           111           0.001    0.176    0.824  No    Preprocess~
# ... with 2,990 more rows
…
best_class_tree <- tree_class_tune %>% select_best(metric = "accuracy")

class_tree_final_wf <-
  class_tree_wf %>% 
  finalize_workflow(best_class_tree)

class_tree_fit <- 
  fit(class_tree_final_wf, car_train)

class_tree_pred <- augment(class_tree_fit, car_test)
class_tree_pred

# A tibble: 100 x 14
   CompPrice Income Advertising Population Price ShelveLoc   Age Education Urban
       <dbl>  <dbl>       <dbl>      <dbl> <dbl> <fct>     <dbl>     <dbl> <fct>
 1       111     48          16        260    83 Good         65        10 Yes  
 2       113     35          10        269    80 Medium       59        12 Yes  
 3       115    105           0         45   108 Medium       71        15 Yes  
 4       132    113           0        131   124 Medium       76        17 No   
 5       122     35           2        393   136 Medium       62        18 Yes  
 6       149     95           5        400   144 Medium       76        18 No   
 7       128     46           6        497   138 Medium       42        13 Yes  
 8       121     31           0        292   109 Medium       79        10 Yes  
 9       107    115          11        496   131 Good         50        11 No   
10       103     74           0        359    97 Bad          55        11 Yes  
# ... with 90 more rows, and 5 more variables: US <fct>, High <fct>,
#   .pred_class <fct>, .pred_No <dbl>, .pred_Yes <dbl>
…
Call:
 randomForest(x = maybe_data_frame(x), y = y, mtry = min_cols(~.cols(),      x), importance = ~T) 
               Type of random forest: classification
                     Number of trees: 500
No. of variables tried at each split: 10

        OOB estimate of  error rate: 20.33%
Confusion matrix:
     No Yes class.error
No  150  27   0.1525424
Yes  34  89   0.2764228

bagg_pred <- augment(bagg_fit, car_test) %>% print()

# A tibble: 100 x 14
   CompPrice Income Advertising Population Price ShelveLoc   Age Education Urban
       <dbl>  <dbl>       <dbl>      <dbl> <dbl> <fct>     <dbl>     <dbl> <fct>
 1       111     48          16        260    83 Good         65        10 Yes  
 2       113     35          10        269    80 Medium       59        12 Yes  
 3       115    105           0         45   108 Medium       71        15 Yes  
 4       132    113           0        131   124 Medium       76        17 No   
 5       122     35           2        393   136 Medium       62        18 Yes  
 6       149     95           5        400   144 Medium       76        18 No   
 7       128     46           6        497   138 Medium       42        13 Yes  
 8       121     31           0        292   109 Medium       79        10 Yes  
 9       107    115          11        496   131 Good         50        11 No   
10       103     74           0        359    97 Bad          55        11 Yes  
# ... with 90 more rows, and 5 more variables: US <fct>, High <fct>,
#   .pred_class <fct>, .pred_No <dbl>, .pred_Yes <dbl>
…
Call:
 randomForest(x = maybe_data_frame(x), y = y, mtry = min_cols(~ceiling(sqrt(ncol(carseat))),      x), importance = ~T) 
               Type of random forest: classification
                     Number of trees: 500
No. of variables tried at each split: 4

        OOB estimate of  error rate: 22%
Confusion matrix:
     No Yes class.error
No  152  25   0.1412429
Yes  41  82   0.3333333

rf_pred <- augment(rf_fit, car_test) %>% print()

# A tibble: 100 x 14
   CompPrice Income Advertising Population Price ShelveLoc   Age Education Urban
       <dbl>  <dbl>       <dbl>      <dbl> <dbl> <fct>     <dbl>     <dbl> <fct>
 1       111     48          16        260    83 Good         65        10 Yes  
 2       113     35          10        269    80 Medium       59        12 Yes  
 3       115    105           0         45   108 Medium       71        15 Yes  
 4       132    113           0        131   124 Medium       76        17 No   
 5       122     35           2        393   136 Medium       62        18 Yes  
 6       149     95           5        400   144 Medium       76        18 No   
 7       128     46           6        497   138 Medium       42        13 Yes  
 8       121     31           0        292   109 Medium       79        10 Yes  
 9       107    115          11        496   131 Good         50        11 No   
10       103     74           0        359    97 Bad          55        11 Yes  
# ... with 90 more rows, and 5 more variables: US <fct>, High <fct>,
#   .pred_class <fct>, .pred_No <dbl>, .pred_Yes <dbl>
…
xgb_pred <- augment(xgb_fit, car_test) %>% print()

# A tibble: 100 x 14
   CompPrice Income Advertising Population Price ShelveLoc   Age Education Urban
       <dbl>  <dbl>       <dbl>      <dbl> <dbl> <fct>     <dbl>     <dbl> <fct>
 1       111     48          16        260    83 Good         65        10 Yes  
 2       113     35          10        269    80 Medium       59        12 Yes  
 3       115    105           0         45   108 Medium       71        15 Yes  
 4       132    113           0        131   124 Medium       76        17 No   
 5       122     35           2        393   136 Medium       62        18 Yes  
 6       149     95           5        400   144 Medium       76        18 No   
 7       128     46           6        497   138 Medium       42        13 Yes  
 8       121     31           0        292   109 Medium       79        10 Yes  
 9       107    115          11        496   131 Good         50        11 No   
10       103     74           0        359    97 Bad          55        11 Yes  
# ... with 90 more rows, and 5 more variables: US <fct>, High <fct>,
#   .pred_class <fct>, .pred_No <dbl>, .pred_Yes <dbl>
…
