09. Support Vector Machines
…
augment(svm_rbf_fit, new_data = sim_data2_test) %>%
  conf_mat(truth = y, estimate = .pred_class)

          Truth
Prediction   1   2
         1 137   7
         2  13  43

augment(svm_rbf_fit, new_data = sim_data2_test) %>%
  roc_curve(truth = y, estimate = .pred_1)

# A tibble: 202 x 3
   .threshold specificity sensitivity
        <dbl>       <dbl>       <dbl>
 1   -Inf            0          1    
 2      0.104        0          1    
 3      0.113        0.02       1    
 4      0.114        0.04       1    
 5      0.115        0.06       1    
 6      0.117        0.08       1    
 7      0.118        0.1        1    
 8      0.119        0.12       1    
 9      0.124        0.14       1    
10      0.124        0.14       0.993
# ... with 192 more rows
…
