12. Unsupervised Learning
…
usa_pca %>%  summary()

Importance of components:
                          PC1    PC2     PC3     PC4
Standard deviation     1.5749 0.9949 0.59713 0.41645
Proportion of Variance 0.6201 0.2474 0.08914 0.04336
Cumulative Proportion  0.6201 0.8675 0.95664 1.00000

now we can use our favorite broom function to extract information from this prcomp object. We start with tidy(). tidy() can be used to extract a couple of different things, see ?broom:::tidy.prcomp() for more information. tidy() will by default extract the scores of a PCA object in long tidy format. The score of is the location of the observation in PCA space. So we can

tidy(usa_pca)

# A tibble: 200 x 3
     row    PC  value
   <int> <dbl>  <dbl>
 1     1     1 -0.976
 2     1     2  1.12 
 3     1     3 -0.440
 4     1     4  0.155
 5     2     1 -1.93 
 6     2     2  1.06 
 7     2     3  2.02 
 8     2     4 -0.434
 9     3     1 -1.75 
10     3     2 -0.738
# ... with 190 more rows
…
augment(usa_pca)

# A tibble: 50 x 5
   .rownames .fittedPC1 .fittedPC2 .fittedPC3 .fittedPC4
   <chr>          <dbl>      <dbl>      <dbl>      <dbl>
 1 1            -0.976      1.12      -0.440     0.155  
 2 2            -1.93       1.06       2.02     -0.434  
 3 3            -1.75      -0.738      0.0542   -0.826  
 4 4             0.140      1.11       0.113    -0.181  
 5 5            -2.50      -1.53       0.593    -0.339  
 6 6            -1.50      -0.978      1.08      0.00145
 7 7             1.34      -1.08      -0.637    -0.117  
 8 8            -0.0472    -0.322     -0.711    -0.873  
 9 9            -2.98       0.0388    -0.571    -0.0953 
10 10           -1.62       1.27      -0.339     1.07   
# ... with 40 more rows
…
pca_rec <- 
  recipe(~ ., data = usa) %>% 
  step_normalize(all_numeric_predictors()) %>% 
  step_pca(all_numeric_predictors(), id = "pca") %>% 
  prep()

pca_rec %>% juice

# A tibble: 50 x 5
   state           PC1     PC2     PC3      PC4
   <fct>         <dbl>   <dbl>   <dbl>    <dbl>
 1 Alabama     -0.976   1.12   -0.440   0.155  
 2 Alaska      -1.93    1.06    2.02   -0.434  
 3 Arizona     -1.75   -0.738   0.0542 -0.826  
 4 Arkansas     0.140   1.11    0.113  -0.181  
 5 California  -2.50   -1.53    0.593  -0.339  
 6 Colorado    -1.50   -0.978   1.08    0.00145
 7 Connecticut  1.34   -1.08   -0.637  -0.117  
 8 Delaware    -0.0472 -0.322  -0.711  -0.873  
 9 Florida     -2.98    0.0388 -0.571  -0.0953 
10 Georgia     -1.62    1.27   -0.339   1.07   
# ... with 40 more rows
…
pca_rec <- 
  recipe(~ ., data = usa) %>% 
  step_normalize(all_numeric_predictors()) %>% 
  step_pca(all_numeric_predictors(), num_comp = 3) %>% 
  prep() %>% 
  juice() %>% 
  print()

# A tibble: 50 x 4
   state           PC1     PC2     PC3
   <fct>         <dbl>   <dbl>   <dbl>
 1 Alabama     -0.976   1.12   -0.440 
 2 Alaska      -1.93    1.06    2.02  
 3 Arizona     -1.75   -0.738   0.0542
 4 Arkansas     0.140   1.11    0.113 
 5 California  -2.50   -1.53    0.593 
 6 Colorado    -1.50   -0.978   1.08  
 7 Connecticut  1.34   -1.08   -0.637 
 8 Delaware    -0.0472 -0.322  -0.711 
 9 Florida     -2.98    0.0388 -0.571 
10 Georgia     -1.62    1.27   -0.339 
# ... with 40 more rows

pca_rec <- 
  recipe(~ ., data = usa) %>% 
  step_normalize(all_numeric_predictors()) %>% 
  step_pca(all_numeric_predictors(), threshold = .7) %>% 
  prep() %>% 
  juice() %>% 
  print()

# A tibble: 50 x 3
   state           PC1     PC2
   <fct>         <dbl>   <dbl>
 1 Alabama     -0.976   1.12  
 2 Alaska      -1.93    1.06  
 3 Arizona     -1.75   -0.738 
 4 Arkansas     0.140   1.11  
 5 California  -2.50   -1.53  
 6 Colorado    -1.50   -0.978 
 7 Connecticut  1.34   -1.08  
 8 Delaware    -0.0472 -0.322 
 9 Florida     -2.98    0.0388
10 Georgia     -1.62    1.27  
# ... with 40 more rows
…
[1] "cluster"      "centers"      "totss"        "withinss"     "tot.withinss"
[6] "betweenss"    "size"         "iter"         "ifault"      

tidy(res_kmeans)

# A tibble: 3 x 5
     V1      V2  size withinss cluster
  <dbl>   <dbl> <int>    <dbl> <fct>  
1 2.54  -2.49      11     14.6 1      
2 0.234  0.0441    23     54.8 2      
3 2.82  -5.01      16     27.0 3      

augment(res_kmeans, data = x_df)

# A tibble: 50 x 3
        V1     V2 .cluster
     <dbl>  <dbl> <fct>   
 1 -0.897  -0.838 2       
 2  0.185   2.07  2       
 3  1.59   -0.562 2       
 4 -1.13    1.28  2       
 5 -0.0803 -1.05  2       
 6  0.132  -1.97  2       
 7  0.708  -0.323 2       
 8 -0.240   0.936 2       
 9  1.98    1.14  2       
10 -0.139   1.67  2       
# ... with 40 more rows
…
