03. Linear regression
…
# A tibble: 1 x 10
  r.squared adj.r.squared sigma statistic  p.value    df   AIC   BIC df.residual
      <dbl>         <dbl> <dbl>     <dbl>    <dbl> <dbl> <dbl> <dbl>       <int>
1     0.544         0.543  6.22      602. 5.08e-88     1 3289. 3302.         504
# ... with 1 more variable: model <chr>

We need to explicitly supply the data set that the predictions should be performed on via the new_data argument.

predict(lm_fit, boston)

# A tibble: 506 x 1
   .pred
   <dbl>
 1 29.8 
 2 25.9 
 3 30.7 
 4 31.8 
 5 29.5 
 6 29.6 
 7 22.7 
 8 16.4 
 9  6.12
10 18.3 
# ... with 496 more rows

Notice how the predictions are returned as a tibble. This will always be the case for parsnip models, no matter what engine is used. This is very useful since consistency allows us to combine data sets easily.

We can also return other types of predicts by specifying the type argument. Setting type = conf_int return a 95% confidence interval.

predict(lm_fit, boston, type = "conf_int")

# A tibble: 506 x 2
   .pred_lower .pred_upper
         <dbl>       <dbl>
 1       29.0        30.6 
 2       25.3        26.5 
 3       29.9        31.6 
 4       30.8        32.7 
 5       28.7        30.3 
 6       28.8        30.4 
 7       22.2        23.3 
 8       15.6        17.1 
 9        4.70        7.54
10       17.7        18.9 
# ... with 496 more rows

predict(lm_fit, boston, type = "pred_int")

# A tibble: 506 x 2
   .pred_lower .pred_upper
         <dbl>       <dbl>
 1       17.6         42.1
 2       13.6         38.1
 3       18.5         43.0
 4       19.5         44.0
 5       17.3         41.7
 6       17.4         41.8
 7       10.5         35.0
 8        4.13        28.6
 9       -6.18        18.4
10        6.08        30.5
# ... with 496 more rows

You can get the same results using the augment() function to same you a little bit of typing.

augment(lm_fit, boston) %>% 
  select(medv, .pred, .resid)

# A tibble: 506 x 3
    medv .pred .resid
   <dbl> <dbl>  <dbl>
 1  24   29.8  -5.82 
 2  21.6 25.9  -4.27 
 3  34.7 30.7   3.97 
 4  33.4 31.8   1.64 
 5  36.2 29.5   6.71 
 6  28.7 29.6  -0.904
 7  22.9 22.7   0.155
 8  27.1 16.4  10.7  
 9  16.5  6.12 10.4  
10  18.9 18.3   0.592
# ... with 496 more rows
…
# A tibble: 1 x 10
  r.squared adj.r.squared sigma statistic  p.value    df   AIC   BIC df.residual
      <dbl>         <dbl> <dbl>     <dbl>    <dbl> <dbl> <dbl> <dbl>       <int>
1     0.551         0.549  6.17      309. 2.98e-88     2 3283. 3300.         503
# ... with 1 more variable: model <chr>

augment(lm_fit2, boston) %>% 
  select(medv, .pred, .resid)

# A tibble: 506 x 3
    medv .pred .resid
   <dbl> <dbl>  <dbl>
 1  24   30.3  -6.34 
 2  21.6 26.5  -4.92 
 3  34.7 31.2   3.53 
 4  33.4 31.8   1.63 
 5  36.2 29.6   6.61 
 6  28.7 29.9  -1.17 
 7  22.9 22.7   0.205
 8  27.1 16.8  10.3  
 9  16.5  5.79 10.7  
10  18.9 18.5   0.358
# ... with 496 more rows
…
# A tibble: 1 x 10
  r.squared adj.r.squared sigma statistic  p.value    df   AIC   BIC df.residual
      <dbl>         <dbl> <dbl>     <dbl>    <dbl> <dbl> <dbl> <dbl>       <int>
1     0.556         0.553  6.15      209. 4.86e-88     3 3280. 3301.         502
# ... with 1 more variable: model <chr>

augment(lm_fit3, boston) %>% 
  select(medv, .pred, .resid)

# A tibble: 506 x 3
    medv .pred .resid
   <dbl> <dbl>  <dbl>
 1  24   30.5  -6.46 
 2  21.6 26.3  -4.70 
 3  34.7 31.5   3.24 
 4  33.4 32.5   0.878
 5  36.2 29.8   6.37 
 6  28.7 30.1  -1.36 
 7  22.9 22.2   0.723
 8  27.1 17.0  10.1  
 9  16.5  6.79  9.71 
10  18.9 18.3   0.574
# ... with 496 more rows
…
